…
First, let's see what happens if we take the mean of a sample from this distribution without rounding. This should be unbiased no matter the mean (mu), precision (nu), or sample size. First, we'll make a grid over mean, precision and sample size to calculate bias over:

``` r
grid = expand.grid(
  mu = ppoints(10000),  # ppoints(k) -> k evenly spaced points between 0 and 1, excluding 0 and 1
  nu = c(3, 10, 25, 100),
  sample_size = c(5, 10, 30, 100)
) %>%
  group_by(mu, nu, sample_size)
grid
```

    ## Source: local data frame [160,000 x 3]
    ## Groups: mu, nu, sample_size [160,000]
    ## 
    ##         mu    nu sample_size
    ##      <dbl> <dbl>       <dbl>
    ## 1  0.00005     3           5
    ## 2  0.00015     3           5
    ## 3  0.00025     3           5
    ## 4  0.00035     3           5
    ## 5  0.00045     3           5
    ## 6  0.00055     3           5
    ## 7  0.00065     3           5
    ## 8  0.00075     3           5
    ## 9  0.00085     3           5
    ## 10 0.00095     3           5
    ## # ... with 159,990 more rows
…
